<?xml version="1.0" encoding="utf-8"?>
<!-- Generator: Adobe Illustrator 16.0.0, SVG Export Plug-In . SVG Version: 6.00 Build 0)  -->
<!DOCTYPE svg PUBLIC "-//W3C//DTD SVG 1.1//EN" "http://www.w3.org/Graphics/SVG/1.1/DTD/svg11.dtd">
<svg version="1.1" id="Layer_1" xmlns="http://www.w3.org/2000/svg" xmlns:xlink="http://www.w3.org/1999/xlink" x="0px" y="0px"
	 width="191.982px" height="191.988px" viewBox="0 0 191.982 191.988" enable-background="new 0 0 191.982 191.988"
	 xml:space="preserve">
<path fill="#231F20" d="M96.292,191.897c-22.161,0.001-44.326-0.248-66.482,0.088c-14.935,0.226-27.301-12.574-28.89-25.425
	c-0.486-3.938-0.804-7.923-0.809-11.888C0.053,113.599-0.145,72.523,0.188,31.451C0.312,16.199,10.728,3.253,26.456,0.847
	c3.344-0.512,6.76-0.758,10.144-0.763c41.489-0.05,82.98-0.185,124.47,0.045c14.95,0.083,27.799,10.035,30.552,24.513
	c0.293,1.54,0.339,3.146,0.339,4.722c0.019,44.823,0.04,89.647,0.001,134.47c-0.014,14.979-13.172,28.032-28.185,28.055
	C141.282,191.919,118.787,191.896,96.292,191.897z M126.343,74.143c-0.947,0-1.43,0-1.911,0c-5.165-0.002-10.33-0.014-15.495,0.004
	c-1.062,0.004-2.032,0.055-2.01-1.464c0.062-3.997-0.081-8.005,0.154-11.991c0.214-3.618,1.838-5.236,5.522-5.492
	c3.896-0.271,7.819-0.211,11.731-0.208c1.198,0.001,1.892-0.208,1.883-1.601c-0.034-6.164,0.019-12.329-0.084-18.492
	c-0.009-0.504-0.94-1.426-1.438-1.422c-7.74,0.071-15.545-0.306-23.204,0.564c-11.327,1.286-18.041,7.985-19.665,19.337
	c-0.866,6.06-0.496,12.293-0.688,18.447c-0.023,0.711-0.087,1.42-0.144,2.317c-4.289,0-8.342,0-12.729,0c0,1.092,0,1.979,0,2.868
	c0.004,5.247,0.133,10.501-0.045,15.742c-0.082,2.379,0.528,3.227,3.002,3.059c3.266-0.224,6.559-0.056,9.866-0.056
	c0.036,0.785,0.064,1.112,0.064,1.439c0,19.327,0.026,38.654-0.046,57.979c-0.007,1.98,0.542,2.584,2.532,2.552
	c6.828-0.112,13.664-0.145,20.49,0.013c2.17,0.05,2.836-0.429,2.825-2.697c-0.091-19.077-0.052-38.153-0.044-57.23
	c0.001-0.633,0.083-1.267,0.138-2.059c5.157,0,10.142-0.058,15.121,0.035c1.52,0.028,2.106-0.511,2.209-1.955
	c0.147-2.075,0.401-4.142,0.609-6.213C125.429,83.249,125.868,78.875,126.343,74.143z"/>
</svg>
