<?xml version="1.0" encoding="utf-8"?>
<!-- Generator: Adobe Illustrator 18.1.0, SVG Export Plug-In . SVG Version: 6.00 Build 0)  -->
<svg version="1.1" xmlns="http://www.w3.org/2000/svg" xmlns:xlink="http://www.w3.org/1999/xlink" x="0px" y="0px"
	 viewBox="0 0 291.653 342.591" enable-background="new 0 0 291.653 342.591" xml:space="preserve">
<g id="BKG">
</g>
<g id="Layer_2">
	<g>
		<path fill="#C49A6C" d="M145.827,5.674C68.081,5.674,4.83,68.925,4.83,146.67s63.251,140.996,140.996,140.996
			s140.996-63.251,140.996-140.996S223.572,5.674,145.827,5.674z M51.298,231.229c-18.648-20.825-30.534-47.822-32.168-77.509
			h109.677L51.298,231.229z M139.361,163.107v110.296c-29.918-1.509-57.131-13.433-78.093-32.204L139.361,163.107z M153.461,237.144
			h81.247c-21.213,20.843-49.694,34.304-81.247,36.186V237.144z M153.461,223.044v-26.436h109.015
			c-4.064,9.457-9.245,18.324-15.378,26.436H153.461z M153.461,182.508v-28.787h119.063c-0.547,9.941-2.247,19.579-4.962,28.787
			H153.461z M145.827,19.774c67.605,0,123.026,53.142,126.697,119.846H19.13C22.801,72.916,78.222,19.774,145.827,19.774z"/>
		<g>
			<g>
				<path fill="#C49A6C" d="M63.47,323.529c0-0.912,0.147-1.781,0.441-2.606c0.293-0.825,0.734-1.553,1.321-2.184
					c0.587-0.631,1.319-1.131,2.193-1.5c0.874-0.369,1.899-0.553,3.074-0.553s2.2,0.185,3.074,0.553
					c0.874,0.369,1.606,0.869,2.193,1.5c0.587,0.631,1.028,1.359,1.321,2.184c0.293,0.825,0.44,1.694,0.44,2.606
					c0,0.912-0.147,1.781-0.44,2.606c-0.294,0.825-0.734,1.553-1.321,2.184c-0.588,0.631-1.319,1.131-2.193,1.5
					c-0.875,0.369-1.9,0.553-3.074,0.553s-2.2-0.185-3.074-0.553c-0.875-0.369-1.606-0.869-2.193-1.5
					c-0.588-0.631-1.028-1.359-1.321-2.184C63.617,325.31,63.47,324.441,63.47,323.529z M73.968,323.529
					c0-0.525-0.075-1.009-0.225-1.453c-0.15-0.443-0.369-0.831-0.656-1.162c-0.288-0.331-0.65-0.587-1.087-0.769
					c-0.437-0.181-0.937-0.272-1.5-0.272c-0.562,0-1.062,0.091-1.5,0.272c-0.437,0.182-0.8,0.438-1.087,0.769
					c-0.288,0.331-0.506,0.719-0.656,1.162c-0.15,0.444-0.224,0.928-0.224,1.453c0,0.525,0.075,1.009,0.224,1.453
					c0.15,0.444,0.369,0.831,0.656,1.162c0.288,0.331,0.65,0.588,1.087,0.769c0.437,0.181,0.937,0.272,1.5,0.272
					c0.563,0,1.062-0.091,1.5-0.272c0.437-0.181,0.8-0.437,1.087-0.769c0.288-0.331,0.506-0.718,0.656-1.162
					C73.893,324.538,73.968,324.054,73.968,323.529z"/>
			</g>
			<g>
				<path fill="#C49A6C" d="M95.768,316.968v13.122H92.3v-6.973l-2.812,4.312h-1.987l-2.812-4.33v6.992h-3.468v-13.122h3.281
					l3.993,6.148l3.993-6.148H95.768z"/>
			</g>
			<g>
				<path fill="#C49A6C" d="M109.565,316.968v2.999h-5.98v2.005h5.417v2.981h-5.417v2.137h6.092v2.999h-9.56v-13.122H109.565z"/>
			</g>
			<g>
				<path fill="#C49A6C" d="M112.77,323.529c0-1.225,0.206-2.268,0.619-3.13s0.956-1.568,1.631-2.118
					c0.674-0.55,1.446-0.953,2.315-1.209c0.869-0.256,1.759-0.384,2.671-0.384c0.712,0,1.412,0.072,2.099,0.216
					s1.344,0.347,1.968,0.609v3.281c-0.488-0.338-1.047-0.597-1.678-0.778c-0.631-0.181-1.278-0.272-1.94-0.272
					c-0.525,0-1.037,0.072-1.537,0.215c-0.5,0.144-0.94,0.366-1.321,0.666c-0.382,0.3-0.687,0.69-0.919,1.172
					c-0.231,0.481-0.347,1.059-0.347,1.734c0,0.813,0.132,1.469,0.394,1.968c0.262,0.5,0.59,0.89,0.984,1.172
					c0.394,0.281,0.816,0.472,1.266,0.572c0.45,0.1,0.862,0.15,1.237,0.15c0.35,0,0.65-0.031,0.9-0.094v-4.424h3.281v6.617
					c-0.675,0.288-1.381,0.506-2.118,0.656c-0.738,0.15-1.481,0.225-2.231,0.225c-0.937,0-1.844-0.134-2.718-0.403
					c-0.875-0.268-1.649-0.681-2.324-1.237c-0.675-0.556-1.215-1.265-1.622-2.127C112.974,325.741,112.77,324.716,112.77,323.529z"
					/>
			</g>
			<g>
				<path fill="#C49A6C" d="M127.167,330.09l5.155-13.122h3.749l5.155,13.122h-3.561l-0.75-2.062h-5.436l-0.75,2.062H127.167z
					 M132.509,325.216h3.374l-1.35-3.786c-0.063-0.162-0.119-0.338-0.169-0.525c-0.05-0.187-0.106-0.456-0.169-0.806
					c-0.063,0.35-0.119,0.619-0.169,0.806c-0.05,0.187-0.106,0.363-0.169,0.525L132.509,325.216z"/>
			</g>
			<g>
				<path fill="#C49A6C" d="M153.072,316.968v10.029h5.999v3.093h-9.467v-13.122H153.072z"/>
			</g>
			<g>
				<path fill="#C49A6C" d="M171.874,316.968v2.999h-5.98v2.005h5.417v2.981h-5.417v2.137h6.092v2.999h-9.56v-13.122H171.874z"/>
			</g>
			<g>
				<path fill="#C49A6C" d="M179.616,330.09l-4.93-13.122h3.749l2.962,8.998l2.962-8.998h3.749l-4.93,13.122H179.616z"/>
			</g>
			<g>
				<path fill="#C49A6C" d="M194.743,316.968v13.122h-3.468v-13.122H194.743z"/>
			</g>
			<g>
				<path fill="#C49A6C" d="M199.091,330.09v-13.122h3.281l5.136,7.535c-0.026-0.312-0.044-0.662-0.056-1.05
					c-0.013-0.387-0.019-0.762-0.019-1.124v-5.361h3.468v13.122h-3.281l-5.136-7.517c0.025,0.312,0.044,0.659,0.056,1.04
					c0.013,0.382,0.019,0.753,0.019,1.115v5.361H199.091z"/>
			</g>
			<g>
				<path fill="#C49A6C" d="M224.698,316.968v2.999h-5.98v2.005h5.417v2.981h-5.417v2.137h6.092v2.999h-9.56v-13.122H224.698z"/>
			</g>
		</g>
	</g>
</g>
<g id="Isolation_Mode">
</g>
<g id="Layer_1">
</g>
</svg>
